[INFO] [1643823780.721038]: GPS Data: Lat: 4220.5245 Long: 7105.645 Alt: 5.6 UTM East: 673375.2052935031 UTM North: 4674117.12419505 Zone: 42T
[INFO] [1643823781.810717]: GPS Data: Lat: 4220.5245 Long: 7105.645 Alt: 5.7 UTM East: 673375.2052935031 UTM North: 4674117.12419505 Zone: 42T
[INFO] [1643823783.608568]: GPS Data: Lat: 4220.5245 Long: 7105.645 Alt: 5.7 UTM East: 673375.2052935031 UTM North: 4674117.12419505 Zone: 42T
[INFO] [1643823784.296341]: GPS Data: Lat: 1.0 Long: 1.8 Alt: 0.0 UTM East: 166021.4431793313 UTM North: 0.0 Zone: 31N
[INFO] [1643823785.600312]: GPS Data: Lat: 4220.5245 Long: 7105.645 Alt: 5.7 UTM East: 673375.2052935031 UTM North: 4674117.12419505 Zone: 42T
[INFO] [1643823786.833744]: GPS Data: Lat: 4220.5246 Long: 7105.645 Alt: 5.6 UTM East: 673375.2052935031 UTM North: 4674117.12419505 Zone: 42T
[INFO] [1643823788.615222]: GPS Data: Lat: 4220.5246 Long: 7105.6449 Alt: 5.4 UTM East: 673375.2052935031 UTM North: 4674117.12419505 Zone: 42T
[INFO] [1643823789.303481]: GPS Data: Lat: 0.0 Long: 0.0 Alt: 0.0 UTM East: 166021.4431793313 UTM North: 0.0 Zone: 31N
[INFO] [1643823790.622110]: GPS Data: Lat: 4220.5245 Long: 7105.6447 Alt: 5.5 UTM East: 673375.2052935031 UTM North: 4674117.12419505 Zone: 42T
[INFO] [1643823791.873164]: GPS Data: Lat: 4220.5245 Long: 7105.6447 Alt: 5.5 UTM East: 673375.2052935031 UTM North: 4674117.12419505 Zone: 42T
[INFO] [1643823793.635414]: GPS Data: Lat: 4220.5245 Long: 7105.6447 Alt: 5.5 UTM East: 673375.2052935031 UTM North: 4674117.12419505 Zone: 42T
[INFO] [1643823794.323588]: GPS Data: Lat: 0.0 Long: 0.0 Alt: 0.0 UTM East: 166021.4431793313 UTM North: 0.0 Zone: 31N
[INFO] [1643823795.648132]: GPS Data: Lat: 4220.5245 Long: 7105.6448 Alt: 5.6 UTM East: 673375.2052935031 UTM North: 4674117.12419505 Zone: 42T
[INFO] [1643823796.899804]: GPS Data: Lat: 4220.5245 Long: 7105.6448 Alt: 5.6 UTM East: 673375.2052935031 UTM North: 4674117.12419505 Zone: 42T
[INFO] [1643823798.667043]: GPS Data: Lat: 4220.5244 Long: 7105.6448 Alt: 5.6 UTM East: 673375.2052935031 UTM North: 4674117.12419505 Zone: 42T
[INFO] [1643823799.354763]: GPS Data: Lat: 0.0 Long: 0.0 Alt: 0.0 UTM East: 166021.4431793313 UTM North: 0.0 Zone: 31N
[INFO] [1643823800.672621]: GPS Data: Lat: 4220.5244 Long: 7105.6448 Alt: 5.6 UTM East: 673375.2052935031 UTM North: 4674117.12419505 Zone: 42T
[INFO] [1643823801.909934]: GPS Data: Lat: 4220.5245 Long: 7105.6448 Alt: 5.7 UTM East: 673375.2052935031 UTM North: 4674117.12419505 Zone: 42T
[INFO] [1643823803.690928]: GPS Data: Lat: 4220.5245 Long: 7105.6448 Alt: 5.7 UTM East: 673375.2052935031 UTM North: 4674117.12419505 Zone: 42T
[INFO] [1643823804.377842]: GPS Data: Lat: 0.0 Long: 0.0 Alt: 0.0 UTM East: 166021.4431793313 UTM North: 0.0 Zone: 31N
[INFO] [1643823805.697551]: GPS Data: Lat: 4220.5245 Long: 7105.6448 Alt: 5.7 UTM East: 673375.2052935031 UTM North: 4674117.12419505 Zone: 42T
[INFO] [1643823806.931284]: GPS Data: Lat: 4220.5245 Long: 7105.6448 Alt: 5.7 UTM East: 673375.2052935031 UTM North: 4674117.12419505 Zone: 42T
[INFO] [1643823808.712459]: GPS Data: Lat: 4220.5245 Long: 7105.6448 Alt: 5.7 UTM East: 673375.2052935031 UTM North: 4674117.12419505 Zone: 42T
[INFO] [1643823809.400296]: GPS Data: Lat: 3.0 Long: 4.0 Alt: 0.0 UTM East: 166021.4431793313 UTM North: 0.0 Zone: 31N
[INFO] [1643823810.720418]: GPS Data: Lat: 4220.5245 Long: 7105.6449 Alt: 5.7 UTM East: 673375.2052935031 UTM North: 4674117.12419505 Zone: 42T
[INFO] [1643823811.954057]: GPS Data: Lat: 4220.5245 Long: 7105.6449 Alt: 5.7 UTM East: 673375.2052935031 UTM North: 4674117.12419505 Zone: 42T
[INFO] [1643823813.736903]: GPS Data: Lat: 4220.5245 Long: 7105.6449 Alt: 5.7 UTM East: 673375.2052935031 UTM North: 4674117.12419505 Zone: 42T
[INFO] [1643823814.424443]: GPS Data: Lat: 26.0 Long: 31.0 Alt: 0.0 UTM East: 199449.68930742657 UTM North: 33196.116540544885 Zone: 31N
[INFO] [1643823815.743200]: GPS Data: Lat: 4220.5245 Long: 7105.6449 Alt: 5.7 UTM East: 673375.2052935031 UTM North: 4674117.12419505 Zone: 42T
[INFO] [1643823816.993286]: GPS Data: Lat: 4220.5245 Long: 7105.6449 Alt: 5.7 UTM East: 673375.2052935031 UTM North: 4674117.12419505 Zone: 42T
[INFO] [1643823818.759897]: GPS Data: Lat: 4220.5245 Long: 7105.6449 Alt: 5.7 UTM East: 673375.2052935031 UTM North: 4674117.12419505 Zone: 42T
[INFO] [1643823819.447823]: GPS Data: Lat: 18.0 Long: 0.0 Alt: 2.6 UTM East: 166023.46801944397 UTM North: 22136.551851399145 Zone: 31N
[INFO] [1643823820.765265]: GPS Data: Lat: 4220.5245 Long: 7105.6449 Alt: 5.7 UTM East: 673375.2052935031 UTM North: 4674117.12419505 Zone: 42T
[INFO] [1643823822.549611]: GPS Data: Lat: 4220.5245 Long: 7105.6449 Alt: 5.7 UTM East: 673375.2052935031 UTM North: 4674117.12419505 Zone: 42T
[INFO] [1643823823.786242]: GPS Data: Lat: 4220.5245 Long: 7105.6449 Alt: 5.7 UTM East: 673375.2052935031 UTM North: 4674117.12419505 Zone: 42T
[INFO] [1643823824.568889]: GPS Data: Lat: 0.0 Long: 0.0 Alt: 1 UTM East: 166021.4431793313 UTM North: 0.0 Zone: 31N
[INFO] [1643823825.787940]: GPS Data: Lat: 4220.5245 Long: 7105.6449 Alt: 5.7 UTM East: 673375.2052935031 UTM North: 4674117.12419505 Zone: 42T
[INFO] [1643823827.586037]: GPS Data: Lat: 4220.5245 Long: 7105.6449 Alt: 5.7 UTM East: 673375.2052935031 UTM North: 4674117.12419505 Zone: 42T
[INFO] [1643823828.803967]: GPS Data: Lat: 4220.5245 Long: 7105.6449 Alt: 5.7 UTM East: 673375.2052935031 UTM North: 4674117.12419505 Zone: 42T
[INFO] [1643823829.597387]: GPS Data: Lat: 0.0 Long: 0.0 Alt: 0.0 UTM East: 166021.4431793313 UTM North: 0.0 Zone: 31N
[INFO] [1643823830.815770]: GPS Data: Lat: 4220.5245 Long: 7105.6449 Alt: 5.7 UTM East: 673375.2052935031 UTM North: 4674117.12419505 Zone: 42T
[INFO] [1643823832.596506]: GPS Data: Lat: 4220.5245 Long: 7105.6449 Alt: 5.7 UTM East: 673375.2052935031 UTM North: 4674117.12419505 Zone: 42T
[INFO] [1643823833.849990]: GPS Data: Lat: 4220.5245 Long: 7105.6449 Alt: 5.7 UTM East: 673375.2052935031 UTM North: 4674117.12419505 Zone: 42T
[INFO] [1643823834.608815]: GPS Data: Lat: 0.0 Long: 0.0 Alt: 0.0 UTM East: 166021.4431793313 UTM North: 0.0 Zone: 31N
[INFO] [1643823835.843500]: GPS Data: Lat: 4220.5245 Long: 7105.6449 Alt: 5.7 UTM East: 673375.2052935031 UTM North: 4674117.12419505 Zone: 42T
[INFO] [1643823837.625217]: GPS Data: Lat: 4220.5245 Long: 7105.6449 Alt: 5.7 UTM East: 673375.2052935031 UTM North: 4674117.12419505 Zone: 42T
[INFO] [1643823838.860974]: GPS Data: Lat: 4220.5245 Long: 7105.6449 Alt: 5.7 UTM East: 673375.2052935031 UTM North: 4674117.12419505 Zone: 42T
[INFO] [1643823839.637312]: GPS Data: Lat: 0.0 Long: 0.0 Alt: 0.0 UTM East: 166021.4431793313 UTM North: 0.0 Zone: 31N
[INFO] [1643823840.870677]: GPS Data: Lat: 4220.5245 Long: 7105.6449 Alt: 5.7 UTM East: 673375.2052935031 UTM North: 4674117.12419505 Zone: 42T
[INFO] [1643823842.671906]: GPS Data: Lat: 4220.5245 Long: 7105.6449 Alt: 5.7 UTM East: 673375.2052935031 UTM North: 4674117.12419505 Zone: 42T
[INFO] [1643823843.888294]: GPS Data: Lat: 4220.5245 Long: 7105.6449 Alt: 5.7 UTM East: 673375.2052935031 UTM North: 4674117.12419505 Zone: 42T
[INFO] [1643823844.663600]: GPS Data: Lat: 0.0 Long: 0.0 Alt: 0.0 UTM East: 166021.4431793313 UTM North: 0.0 Zone: 31N
[INFO] [1643823845.917210]: GPS Data: Lat: 4220.5245 Long: 7105.6449 Alt: 5.7 UTM East: 673375.2052935031 UTM North: 4674117.12419505 Zone: 42T
[INFO] [1643823847.697248]: GPS Data: Lat: 4220.5245 Long: 7105.6449 Alt: 5.7 UTM East: 673375.2052935031 UTM North: 4674117.12419505 Zone: 42T
[INFO] [1643823848.915520]: GPS Data: Lat: 4220.5245 Long: 7105.6449 Alt: 5.7 UTM East: 673375.2052935031 UTM North: 4674117.12419505 Zone: 42T
[INFO] [1643823849.693142]: GPS Data: Lat: 0.0 Long: 0.0 Alt: 0.0 UTM East: 166021.4431793313 UTM North: 0.0 Zone: 31N
[INFO] [1643823850.927383]: GPS Data: Lat: 4220.5245 Long: 7105.6449 Alt: 5.7 UTM East: 673375.2052935031 UTM North: 4674117.12419505 Zone: 42T
[INFO] [1643823852.708718]: GPS Data: Lat: 4220.5245 Long: 7105.645 Alt: 5.7 UTM East: 673375.2052935031 UTM North: 4674117.12419505 Zone: 42T
[INFO] [1643823853.944461]: GPS Data: Lat: 4220.5245 Long: 7105.645 Alt: 5.7 UTM East: 673375.2052935031 UTM North: 4674117.12419505 Zone: 42T
[INFO] [1643823854.719900]: GPS Data: Lat: 4220.5245 Long: 7105.645 Alt: 5.7 UTM East: 673375.2052935031 UTM North: 4674117.12419505 Zone: 42T
[INFO] [1643823855.954547]: GPS Data: Lat: 4220.5245 Long: 7105.645 Alt: 5.7 UTM East: 673375.2052935031 UTM North: 4674117.12419505 Zone: 42T
[INFO] [1643823857.737513]: GPS Data: Lat: 4220.5245 Long: 7105.645 Alt: 5.7 UTM East: 673375.2052935031 UTM North: 4674117.12419505 Zone: 42T
[INFO] [1643823858.971590]: GPS Data: Lat: 4220.5245 Long: 7105.645 Alt: 5.7 UTM East: 673375.2052935031 UTM North: 4674117.12419505 Zone: 42T
[INFO] [1643823859.747543]: GPS Data: Lat: 4220.5245 Long: 7105.645 Alt: 5.7 UTM East: 673375.2052935031 UTM North: 4674117.12419505 Zone: 42T
[INFO] [1643823860.982711]: GPS Data: Lat: 4220.5245 Long: 7105.645 Alt: 5.7 UTM East: 673375.2052935031 UTM North: 4674117.12419505 Zone: 42T
[INFO] [1643823862.764989]: GPS Data: Lat: 4220.5246 Long: 7105.645 Alt: 5.7 UTM East: 673375.2052935031 UTM North: 4674117.12419505 Zone: 42T
[INFO] [1643823864.015506]: GPS Data: Lat: 4220.5246 Long: 7105.645 Alt: 5.7 UTM East: 673375.2052935031 UTM North: 4674117.12419505 Zone: 42T
[INFO] [1643823864.775199]: GPS Data: Lat: 4220.5246 Long: 7105.645 Alt: 5.7 UTM East: 673375.2052935031 UTM North: 4674117.12419505 Zone: 42T
[INFO] [1643823866.010678]: GPS Data: Lat: 4220.5246 Long: 7105.645 Alt: 5.7 UTM East: 673375.2052935031 UTM North: 4674117.12419505 Zone: 42T
[INFO] [1643823867.808364]: GPS Data: Lat: 4220.5246 Long: 7105.645 Alt: 5.7 UTM East: 673375.2052935031 UTM North: 4674117.12419505 Zone: 42T
[INFO] [1643823869.026501]: GPS Data: Lat: 4220.5246 Long: 7105.645 Alt: 5.7 UTM East: 673375.2052935031 UTM North: 4674117.12419505 Zone: 42T
[INFO] [1643823869.805319]: GPS Data: Lat: 4220.5246 Long: 7105.645 Alt: 5.7 UTM East: 673375.2052935031 UTM North: 4674117.12419505 Zone: 42T
[INFO] [1643823871.055015]: GPS Data: Lat: 4220.5246 Long: 7105.645 Alt: 5.7 UTM East: 673375.2052935031 UTM North: 4674117.12419505 Zone: 42T
[INFO] [1643823872.819522]: GPS Data: Lat: 4220.5246 Long: 7105.645 Alt: 5.7 UTM East: 673375.2052935031 UTM North: 4674117.12419505 Zone: 42T
[INFO] [1643823874.055407]: GPS Data: Lat: 4220.5246 Long: 7105.645 Alt: 5.7 UTM East: 673375.2052935031 UTM North: 4674117.12419505 Zone: 42T
[INFO] [1643823874.832062]: GPS Data: Lat: 4220.5246 Long: 7105.645 Alt: 5.7 UTM East: 673375.2052935031 UTM North: 4674117.12419505 Zone: 42T
[INFO] [1643823876.612915]: GPS Data: Lat: 4220.5246 Long: 7105.6451 Alt: 5.7 UTM East: 673375.2052935031 UTM North: 4674117.12419505 Zone: 42T
[INFO] [1643823877.864805]: GPS Data: Lat: 4220.5246 Long: 7105.6451 Alt: 5.7 UTM East: 673375.2052935031 UTM North: 4674117.12419505 Zone: 42T
[INFO] [1643823879.099597]: GPS Data: Lat: 4220.5246 Long: 7105.6451 Alt: 5.7 UTM East: 673375.2052935031 UTM North: 4674117.12419505 Zone: 42T
[INFO] [1643823879.859212]: GPS Data: Lat: 4220.5246 Long: 7105.6451 Alt: 5.7 UTM East: 673375.2052935031 UTM North: 4674117.12419505 Zone: 42T
[INFO] [1643823881.642404]: GPS Data: Lat: 4220.5246 Long: 7105.6451 Alt: 5.7 UTM East: 673375.2052935031 UTM North: 4674117.12419505 Zone: 42T
[INFO] [1643823882.876195]: GPS Data: Lat: 4220.5246 Long: 7105.6451 Alt: 5.7 UTM East: 673375.2052935031 UTM North: 4674117.12419505 Zone: 42T
[INFO] [1643823884.110150]: GPS Data: Lat: 4220.5246 Long: 7105.6451 Alt: 5.7 UTM East: 673375.2052935031 UTM North: 4674117.12419505 Zone: 42T
[INFO] [1643823884.904003]: GPS Data: Lat: 4220.5246 Long: 7105.6451 Alt: 5.7 UTM East: 673375.2052935031 UTM North: 4674117.12419505 Zone: 42T
[INFO] [1643823886.670406]: GPS Data: Lat: 4220.5246 Long: 7105.6451 Alt: 5.7 UTM East: 673375.2052935031 UTM North: 4674117.12419505 Zone: 42T
[INFO] [1643823887.906265]: GPS Data: Lat: 4220.5246 Long: 7105.6451 Alt: 5.7 UTM East: 673375.2052935031 UTM North: 4674117.12419505 Zone: 42T
[INFO] [1643823889.140284]: GPS Data: Lat: 4220.5246 Long: 7105.6451 Alt: 5.7 UTM East: 673375.2052935031 UTM North: 4674117.12419505 Zone: 42T
[INFO] [1643823889.912854]: GPS Data: Lat: 4220.5246 Long: 7105.6451 Alt: 5.7 UTM East: 673375.2052935031 UTM North: 4674117.12419505 Zone: 42T
[INFO] [1643823891.693010]: GPS Data: Lat: 4220.5246 Long: 7105.6451 Alt: 5.7 UTM East: 673375.2052935031 UTM North: 4674117.12419505 Zone: 42T
[INFO] [1643823892.945181]: GPS Data: Lat: 4220.5246 Long: 7105.6451 Alt: 5.6 UTM East: 673375.2052935031 UTM North: 4674117.12419505 Zone: 42T
[INFO] [1643823894.165226]: GPS Data: Lat: 4220.5246 Long: 7105.6451 Alt: 5.6 UTM East: 673375.2052935031 UTM North: 4674117.12419505 Zone: 42T
[INFO] [1643823894.936143]: GPS Data: Lat: 4220.5246 Long: 7105.6451 Alt: 5.6 UTM East: 673375.2052935031 UTM North: 4674117.12419505 Zone: 42T
[INFO] [1643823896.733226]: GPS Data: Lat: 4220.5246 Long: 7105.6451 Alt: 5.6 UTM East: 673375.2052935031 UTM North: 4674117.12419505 Zone: 42T
[INFO] [1643823897.951837]: GPS Data: Lat: 4220.5246 Long: 7105.6451 Alt: 5.6 UTM East: 673375.2052935031 UTM North: 4674117.12419505 Zone: 42T
[INFO] [1643823899.204026]: GPS Data: Lat: 4220.5246 Long: 7105.6451 Alt: 5.6 UTM East: 673375.2052935031 UTM North: 4674117.12419505 Zone: 42T
[INFO] [1643823899.960109]: GPS Data: Lat: 4220.5246 Long: 7105.6451 Alt: 5.6 UTM East: 673375.2052935031 UTM North: 4674117.12419505 Zone: 42T
[INFO] [1643823901.740481]: GPS Data: Lat: 4220.5246 Long: 7105.6451 Alt: 5.6 UTM East: 673375.2052935031 UTM North: 4674117.12419505 Zone: 42T
[INFO] [1643823902.975789]: GPS Data: Lat: 4220.5246 Long: 7105.6451 Alt: 5.6 UTM East: 673375.2052935031 UTM North: 4674117.12419505 Zone: 42T
[INFO] [1643823904.210140]: GPS Data: Lat: 4220.5246 Long: 7105.6451 Alt: 5.6 UTM East: 673375.2052935031 UTM North: 4674117.12419505 Zone: 42T
[INFO] [1643823904.981712]: GPS Data: Lat: 4220.5246 Long: 7105.6451 Alt: 5.6 UTM East: 673375.2052935031 UTM North: 4674117.12419505 Zone: 42T
[INFO] [1643823906.763984]: GPS Data: Lat: 4220.5246 Long: 7105.6452 Alt: 5.6 UTM East: 673375.2052935031 UTM North: 4674117.12419505 Zone: 42T
[INFO] [1643823907.998440]: GPS Data: Lat: 4220.5246 Long: 7105.6452 Alt: 5.6 UTM East: 673375.2052935031 UTM North: 4674117.12419505 Zone: 42T
[INFO] [1643823909.233624]: GPS Data: Lat: 4220.5246 Long: 7105.6452 Alt: 5.6 UTM East: 673375.2052935031 UTM North: 4674117.12419505 Zone: 42T
[INFO] [1643823910.005070]: GPS Data: Lat: 4220.5246 Long: 7105.6452 Alt: 5.6 UTM East: 673375.2052935031 UTM North: 4674117.12419505 Zone: 42T
[INFO] [1643823911.788905]: GPS Data: Lat: 4220.5246 Long: 7105.6452 Alt: 5.6 UTM East: 673375.2052935031 UTM North: 4674117.12419505 Zone: 42T
[INFO] [1643823913.021777]: GPS Data: Lat: 4220.5246 Long: 7105.6452 Alt: 5.6 UTM East: 673375.2052935031 UTM North: 4674117.12419505 Zone: 42T
[INFO] [1643823914.257219]: GPS Data: Lat: 4220.5246 Long: 7105.6452 Alt: 5.6 UTM East: 673375.2052935031 UTM North: 4674117.12419505 Zone: 42T
[INFO] [1643823915.045174]: GPS Data: Lat: 4220.5246 Long: 7105.6452 Alt: 5.6 UTM East: 673375.2052935031 UTM North: 4674117.12419505 Zone: 42T
[INFO] [1643823916.810451]: GPS Data: Lat: 4220.5246 Long: 7105.6452 Alt: 5.6 UTM East: 673375.2052935031 UTM North: 4674117.12419505 Zone: 42T
[INFO] [1643823918.046534]: GPS Data: Lat: 4220.5246 Long: 7105.6452 Alt: 5.6 UTM East: 673375.2052935031 UTM North: 4674117.12419505 Zone: 42T
[INFO] [1643823919.296920]: GPS Data: Lat: 4220.5246 Long: 7105.6452 Alt: 5.6 UTM East: 673375.2052935031 UTM North: 4674117.12419505 Zone: 42T
[INFO] [1643823920.051716]: GPS Data: Lat: 4220.5246 Long: 7105.6452 Alt: 5.6 UTM East: 673375.2052935031 UTM North: 4674117.12419505 Zone: 42T
[INFO] [1643823921.834449]: GPS Data: Lat: 4220.5246 Long: 7105.6452 Alt: 5.6 UTM East: 673375.2052935031 UTM North: 4674117.12419505 Zone: 42T
[INFO] [1643823923.069430]: GPS Data: Lat: 4220.5245 Long: 7105.6452 Alt: 5.6 UTM East: 673375.2052935031 UTM North: 4674117.12419505 Zone: 42T
[INFO] [1643823924.304107]: GPS Data: Lat: 4220.5245 Long: 7105.6452 Alt: 5.6 UTM East: 673375.2052935031 UTM North: 4674117.12419505 Zone: 42T
[INFO] [1643823925.074871]: GPS Data: Lat: 4220.5245 Long: 7105.6452 Alt: 5.6 UTM East: 673375.2052935031 UTM North: 4674117.12419505 Zone: 42T
[INFO] [1643823926.856976]: GPS Data: Lat: 4220.5245 Long: 7105.6452 Alt: 5.6 UTM East: 673375.2052935031 UTM North: 4674117.12419505 Zone: 42T
[INFO] [1643823928.107771]: GPS Data: Lat: 4220.5245 Long: 7105.6452 Alt: 5.6 UTM East: 673375.2052935031 UTM North: 4674117.12419505 Zone: 42T
[INFO] [1643823929.343034]: GPS Data: Lat: 4220.5245 Long: 7105.6452 Alt: 5.6 UTM East: 673375.2052935031 UTM North: 4674117.12419505 Zone: 42T
[INFO] [1643823930.100894]: GPS Data: Lat: 4220.5245 Long: 7105.6452 Alt: 5.6 UTM East: 673375.2052935031 UTM North: 4674117.12419505 Zone: 42T
[INFO] [1643823931.880244]: GPS Data: Lat: 4220.5245 Long: 7105.6452 Alt: 5.6 UTM East: 673375.2052935031 UTM North: 4674117.12419505 Zone: 42T
[INFO] [1643823933.662464]: GPS Data: Lat: 4220.5245 Long: 7105.6452 Alt: 5.6 UTM East: 673375.2052935031 UTM North: 4674117.12419505 Zone: 42T
[INFO] [1643823934.350588]: GPS Data: Lat: 4220.5245 Long: 7105.6452 Alt: 5.6 UTM East: 673375.2052935031 UTM North: 4674117.12419505 Zone: 42T
[INFO] [1643823935.669062]: GPS Data: Lat: 4220.5245 Long: 7105.6452 Alt: 5.6 UTM East: 673375.2052935031 UTM North: 4674117.12419505 Zone: 42T
[INFO] [1643823936.903383]: GPS Data: Lat: 4220.5245 Long: 7105.6452 Alt: 5.6 UTM East: 673375.2052935031 UTM North: 4674117.12419505 Zone: 42T
[INFO] [1643823938.686045]: GPS Data: Lat: 4220.5245 Long: 7105.6452 Alt: 5.6 UTM East: 673375.2052935031 UTM North: 4674117.12419505 Zone: 42T
[INFO] [1643823939.373983]: GPS Data: Lat: 4220.5245 Long: 7105.6452 Alt: 5.6 UTM East: 673375.2052935031 UTM North: 4674117.12419505 Zone: 42T
[INFO] [1643823940.692165]: GPS Data: Lat: 4220.5245 Long: 7105.6452 Alt: 5.6 UTM East: 673375.2052935031 UTM North: 4674117.12419505 Zone: 42T
[INFO] [1643823941.928010]: GPS Data: Lat: 4220.5245 Long: 7105.6452 Alt: 5.6 UTM East: 673375.2052935031 UTM North: 4674117.12419505 Zone: 42T
[INFO] [1643823943.723404]: GPS Data: Lat: 4220.5245 Long: 7105.6452 Alt: 5.6 UTM East: 673375.2052935031 UTM North: 4674117.12419505 Zone: 42T
[INFO] [1643823944.411276]: GPS Data: Lat: 0.0 Long: 0.0 Alt: 0.0 UTM East: 166021.4431793313 UTM North: 0.0 Zone: 31N
[INFO] [1643823945.714374]: GPS Data: Lat: 4220.5245 Long: 7105.6452 Alt: 5.7 UTM East: 673375.2052935031 UTM North: 4674117.12419505 Zone: 42T
[INFO] [1643823946.947582]: GPS Data: Lat: 4220.5245 Long: 7105.6453 Alt: 5.8 UTM East: 673375.2052935031 UTM North: 4674117.12419505 Zone: 42T
[INFO] [1643823948.731425]: GPS Data: Lat: 4220.5245 Long: 7105.6453 Alt: 5.8 UTM East: 673375.2052935031 UTM North: 4674117.12419505 Zone: 42T
[INFO] [1643823949.419112]: GPS Data: Lat: 0.0 Long: 6.0 Alt: 0.0 UTM East: 177163.80603485834 UTM North: 0.0 Zone: 31N
[INFO] [1643823950.739115]: GPS Data: Lat: 4220.5245 Long: 7105.6453 Alt: 5.8 UTM East: 673375.2052935031 UTM North: 4674117.12419505 Zone: 42T
[INFO] [1643823951.973563]: GPS Data: Lat: 4220.5245 Long: 7105.6453 Alt: 5.8 UTM East: 673375.2052935031 UTM North: 4674117.12419505 Zone: 42T
[INFO] [1643823953.756737]: GPS Data: Lat: 4220.5245 Long: 7105.6453 Alt: 5.8 UTM East: 673375.2052935031 UTM North: 4674117.12419505 Zone: 42T
[INFO] [1643823954.444636]: GPS Data: Lat: 0.0 Long: 6.0 Alt: 0.0 UTM East: 177163.80603485834 UTM North: 0.0 Zone: 31N
[INFO] [1643823955.761684]: GPS Data: Lat: 4220.5245 Long: 7105.6453 Alt: 5.8 UTM East: 673375.2052935031 UTM North: 4674117.12419505 Zone: 42T
[INFO] [1643823956.996730]: GPS Data: Lat: 4220.5245 Long: 7105.6453 Alt: 5.8 UTM East: 673375.2052935031 UTM North: 4674117.12419505 Zone: 42T
[INFO] [1643823958.778941]: GPS Data: Lat: 4220.5244 Long: 7105.6453 Alt: 5.9 UTM East: 673375.2052935031 UTM North: 4674117.12419505 Zone: 42T
[INFO] [1643823959.467052]: GPS Data: Lat: 0.0 Long: 0.0 Alt: 0.0 UTM East: 166021.4431793313 UTM North: 0.0 Zone: 31N
[INFO] [1643823960.784743]: GPS Data: Lat: 4220.5244 Long: 7105.6454 Alt: 5.9 UTM East: 673375.2052935031 UTM North: 4674117.12419505 Zone: 42T
[INFO] [1643823962.018300]: GPS Data: Lat: 4220.5243 Long: 7105.6454 Alt: 5.9 UTM East: 673375.2052935031 UTM North: 4674117.12419505 Zone: 42T
[INFO] [1643823963.802075]: GPS Data: Lat: 4220.5244 Long: 7105.6454 Alt: 5.9 UTM East: 673375.2052935031 UTM North: 4674117.12419505 Zone: 42T
[INFO] [1643823964.490149]: GPS Data: Lat: 0.0 Long: 0.0 Alt: 0.0 UTM East: 166021.4431793313 UTM North: 0.0 Zone: 31N
[INFO] [1643823965.821711]: GPS Data: Lat: 4220.5244 Long: 7105.6454 Alt: 5.9 UTM East: 673375.2052935031 UTM North: 4674117.12419505 Zone: 42T
[INFO] [1643823967.056172]: GPS Data: Lat: 4220.5244 Long: 7105.6454 Alt: 5.9 UTM East: 673375.2052935031 UTM North: 4674117.12419505 Zone: 42T
[INFO] [1643823968.837767]: GPS Data: Lat: 4220.5244 Long: 7105.6454 Alt: 5.9 UTM East: 673375.2052935031 UTM North: 4674117.12419505 Zone: 42T
[INFO] [1643823969.525665]: GPS Data: Lat: 0.0 Long: 0.0 Alt: 0.0 UTM East: 166021.4431793313 UTM North: 0.0 Zone: 31N
[INFO] [1643823970.845185]: GPS Data: Lat: 4220.5243 Long: 7105.6454 Alt: 5.9 UTM East: 673375.2052935031 UTM North: 4674117.12419505 Zone: 42T
[INFO] [1643823972.096636]: GPS Data: Lat: 4220.5243 Long: 7105.6454 Alt: 5.9 UTM East: 673375.2052935031 UTM North: 4674117.12419505 Zone: 42T
[INFO] [1643823973.861900]: GPS Data: Lat: 4220.5243 Long: 7105.6454 Alt: 5.9 UTM East: 673375.2052935031 UTM North: 4674117.12419505 Zone: 42T
[INFO] [1643823974.549647]: GPS Data: Lat: 0.0 Long: 0.0 Alt: 0.0 UTM East: 166021.4431793313 UTM North: 0.0 Zone: 31N
[INFO] [1643823975.884118]: GPS Data: Lat: 4220.5243 Long: 7105.6454 Alt: 5.9 UTM East: 673375.2052935031 UTM North: 4674117.12419505 Zone: 42T
[INFO] [1643823977.102729]: GPS Data: Lat: 4220.5243 Long: 7105.6454 Alt: 5.9 UTM East: 673375.2052935031 UTM North: 4674117.12419505 Zone: 42T
[INFO] [1643823978.901329]: GPS Data: Lat: 4220.5243 Long: 7105.6454 Alt: 5.9 UTM East: 673375.2052935031 UTM North: 4674117.12419505 Zone: 42T
[INFO] [1643823979.589367]: GPS Data: Lat: 16.0 Long: 26.0 Alt: 0.0 UTM East: 199447.4123688559 UTM North: 22130.743483700822 Zone: 31N
[INFO] [1643823980.889017]: GPS Data: Lat: 4220.5243 Long: 7105.6454 Alt: 5.9 UTM East: 673375.2052935031 UTM North: 4674117.12419505 Zone: 42T
[INFO] [1643823982.145146]: GPS Data: Lat: 4220.5243 Long: 7105.6454 Alt: 5.9 UTM East: 673375.2052935031 UTM North: 4674117.12419505 Zone: 42T
[INFO] [1643823983.918890]: GPS Data: Lat: 4220.5243 Long: 7105.6454 Alt: 5.9 UTM East: 673375.2052935031 UTM North: 4674117.12419505 Zone: 42T
[INFO] [1643823984.607505]: GPS Data: Lat: 0.0 Long: 0.0 Alt: 3.0 UTM East: 166021.4431793313 UTM North: 0.0 Zone: 31N
[INFO] [1643823985.938764]: GPS Data: Lat: 4220.5242 Long: 7105.6454 Alt: 5.9 UTM East: 673375.2052935031 UTM North: 4674117.12419505 Zone: 42T
[INFO] [1643823987.729591]: GPS Data: Lat: 4220.5242 Long: 7105.6454 Alt: 5.9 UTM East: 673375.2052935031 UTM North: 4674117.12419505 Zone: 42T
[INFO] [1643823988.923348]: GPS Data: Lat: 4220.5242 Long: 7105.6454 Alt: 5.9 UTM East: 673375.2052935031 UTM North: 4674117.12419505 Zone: 42T
[INFO] [1643823989.716654]: GPS Data: Lat: 0.0 Long: 0.0 Alt: 3.0 UTM East: 166021.4431793313 UTM North: 0.0 Zone: 31N
[INFO] [1643823990.950675]: GPS Data: Lat: 4220.5242 Long: 7105.6454 Alt: 5.9 UTM East: 673375.2052935031 UTM North: 4674117.12419505 Zone: 42T
[INFO] [1643823992.741611]: GPS Data: Lat: 4220.5242 Long: 7105.6454 Alt: 5.9 UTM East: 673375.2052935031 UTM North: 4674117.12419505 Zone: 42T
[INFO] [1643823993.983235]: GPS Data: Lat: 4220.5242 Long: 7105.6454 Alt: 5.9 UTM East: 673375.2052935031 UTM North: 4674117.12419505 Zone: 42T
[INFO] [1643823994.770643]: GPS Data: Lat: 0.0 Long: 0.0 Alt: 0.0 UTM East: 166021.4431793313 UTM North: 0.0 Zone: 31N
[INFO] [1643823995.989428]: GPS Data: Lat: 4220.5242 Long: 7105.6454 Alt: 5.9 UTM East: 673375.2052935031 UTM North: 4674117.12419505 Zone: 42T
[INFO] [1643823997.770731]: GPS Data: Lat: 4220.5242 Long: 7105.6454 Alt: 5.9 UTM East: 673375.2052935031 UTM North: 4674117.12419505 Zone: 42T
[INFO] [1643823999.023624]: GPS Data: Lat: 4220.5242 Long: 7105.6454 Alt: 5.9 UTM East: 673375.2052935031 UTM North: 4674117.12419505 Zone: 42T
[INFO] [1643823999.789160]: GPS Data: Lat: 0.0 Long: 0.0 Alt: 0.0 UTM East: 166021.4431793313 UTM North: 0.0 Zone: 31N
[INFO] [1643824001.007552]: GPS Data: Lat: 4220.5242 Long: 7105.6454 Alt: 5.9 UTM East: 673375.2052935031 UTM North: 4674117.12419505 Zone: 42T
[INFO] [1643824002.794625]: GPS Data: Lat: 4220.5241 Long: 7105.6454 Alt: 5.9 UTM East: 673375.2052935031 UTM North: 4674117.12419505 Zone: 42T
[INFO] [1643824004.027256]: GPS Data: Lat: 4220.5241 Long: 7105.6454 Alt: 6.0 UTM East: 673375.2052935031 UTM North: 4674117.12419505 Zone: 42T
[INFO] [1643824004.803399]: GPS Data: Lat: 0.0 Long: 0.0 Alt: 0.0 UTM East: 166021.4431793313 UTM North: 0.0 Zone: 31N
[INFO] [1643824006.042231]: GPS Data: Lat: 4220.5241 Long: 7105.6454 Alt: 6.0 UTM East: 673375.2052935031 UTM North: 4674117.12419505 Zone: 42T
[INFO] [1643824007.834621]: GPS Data: Lat: 4220.5241 Long: 7105.6454 Alt: 6.0 UTM East: 673375.2052935031 UTM North: 4674117.12419505 Zone: 42T
[INFO] [1643824009.074089]: GPS Data: Lat: 4220.5241 Long: 7105.6454 Alt: 6.0 UTM East: 673375.2052935031 UTM North: 4674117.12419505 Zone: 42T
[INFO] [1643824009.849367]: GPS Data: Lat: 0.0 Long: 0.0 Alt: 0.0 UTM East: 166021.4431793313 UTM North: 0.0 Zone: 31N
[INFO] [1643824011.092669]: GPS Data: Lat: 4220.5241 Long: 7105.6454 Alt: 6.0 UTM East: 673375.2052935031 UTM North: 4674117.12419505 Zone: 42T
[INFO] [1643824012.877547]: GPS Data: Lat: 4220.5241 Long: 7105.6454 Alt: 6.0 UTM East: 673375.2052935031 UTM North: 4674117.12419505 Zone: 42T
[INFO] [1643824014.130409]: GPS Data: Lat: 4220.5241 Long: 7105.6454 Alt: 6.0 UTM East: 673375.2052935031 UTM North: 4674117.12419505 Zone: 42T
[INFO] [1643824014.885520]: GPS Data: Lat: 4220.5241 Long: 7105.6454 Alt: 6.0 UTM East: 673375.2052935031 UTM North: 4674117.12419505 Zone: 42T
[INFO] [1643824016.135203]: GPS Data: Lat: 4220.5241 Long: 7105.6454 Alt: 6.0 UTM East: 673375.2052935031 UTM North: 4674117.12419505 Zone: 42T
[INFO] [1643824017.900382]: GPS Data: Lat: 4220.5241 Long: 7105.6454 Alt: 6.0 UTM East: 673375.2052935031 UTM North: 4674117.12419505 Zone: 42T
[INFO] [1643824019.134917]: GPS Data: Lat: 4220.5241 Long: 7105.6454 Alt: 6.0 UTM East: 673375.2052935031 UTM North: 4674117.12419505 Zone: 42T
[INFO] [1643824019.918773]: GPS Data: Lat: 4220.5241 Long: 7105.6454 Alt: 6.0 UTM East: 673375.2052935031 UTM North: 4674117.12419505 Zone: 42T
[INFO] [1643824021.136602]: GPS Data: Lat: 4220.5241 Long: 7105.6454 Alt: 6.0 UTM East: 673375.2052935031 UTM North: 4674117.12419505 Zone: 42T
[INFO] [1643824022.920018]: GPS Data: Lat: 4220.5241 Long: 7105.6454 Alt: 6.0 UTM East: 673375.2052935031 UTM North: 4674117.12419505 Zone: 42T
[INFO] [1643824024.154125]: GPS Data: Lat: 4220.5241 Long: 7105.6454 Alt: 6.0 UTM East: 673375.2052935031 UTM North: 4674117.12419505 Zone: 42T
[INFO] [1643824024.922036]: GPS Data: Lat: 4220.524 Long: 7105.6454 Alt: 6.0 UTM East: 673375.2052935031 UTM North: 4674117.12419505 Zone: 42T
[INFO] [1643824026.180354]: GPS Data: Lat: 4220.524 Long: 7105.6454 Alt: 6.0 UTM East: 673375.2052935031 UTM North: 4674117.12419505 Zone: 42T
[INFO] [1643824027.937553]: GPS Data: Lat: 4220.524 Long: 7105.6454 Alt: 6.0 UTM East: 673375.2052935031 UTM North: 4674117.12419505 Zone: 42T
[INFO] [1643824029.188937]: GPS Data: Lat: 4220.524 Long: 7105.6454 Alt: 6.0 UTM East: 673375.2052935031 UTM North: 4674117.12419505 Zone: 42T
[INFO] [1643824029.956043]: GPS Data: Lat: 4220.524 Long: 7105.6454 Alt: 6.0 UTM East: 673375.2052935031 UTM North: 4674117.12419505 Zone: 42T
[INFO] [1643824031.175074]: GPS Data: Lat: 4220.524 Long: 7105.6454 Alt: 6.0 UTM East: 673375.2052935031 UTM North: 4674117.12419505 Zone: 42T
[INFO] [1643824032.956882]: GPS Data: Lat: 4220.524 Long: 7105.6454 Alt: 6.0 UTM East: 673375.2052935031 UTM North: 4674117.12419505 Zone: 42T
[INFO] [1643824034.191735]: GPS Data: Lat: 4220.524 Long: 7105.6454 Alt: 6.0 UTM East: 673375.2052935031 UTM North: 4674117.12419505 Zone: 42T
[INFO] [1643824034.975725]: GPS Data: Lat: 4220.524 Long: 7105.6454 Alt: 6.0 UTM East: 673375.2052935031 UTM North: 4674117.12419505 Zone: 42T
[INFO] [1643824036.193652]: GPS Data: Lat: 4220.524 Long: 7105.6454 Alt: 6.0 UTM East: 673375.2052935031 UTM North: 4674117.12419505 Zone: 42T
[INFO] [1643824037.976530]: GPS Data: Lat: 4220.524 Long: 7105.6454 Alt: 6.0 UTM East: 673375.2052935031 UTM North: 4674117.12419505 Zone: 42T
[INFO] [1643824039.210985]: GPS Data: Lat: 4220.524 Long: 7105.6454 Alt: 6.0 UTM East: 673375.2052935031 UTM North: 4674117.12419505 Zone: 42T
[INFO] [1643824039.977114]: GPS Data: Lat: 4220.524 Long: 7105.6454 Alt: 6.0 UTM East: 673375.2052935031 UTM North: 4674117.12419505 Zone: 42T
[INFO] [1643824041.213105]: GPS Data: Lat: 4220.524 Long: 7105.6454 Alt: 6.0 UTM East: 673375.2052935031 UTM North: 4674117.12419505 Zone: 42T
[INFO] [1643824042.995131]: GPS Data: Lat: 4220.524 Long: 7105.6454 Alt: 6.0 UTM East: 673375.2052935031 UTM North: 4674117.12419505 Zone: 42T
[INFO] [1643824044.230732]: GPS Data: Lat: 4220.524 Long: 7105.6454 Alt: 6.0 UTM East: 673375.2052935031 UTM North: 4674117.12419505 Zone: 42T
[INFO] [1643824044.996131]: GPS Data: Lat: 4220.524 Long: 7105.6454 Alt: 6.0 UTM East: 673375.2052935031 UTM North: 4674117.12419505 Zone: 42T
[INFO] [1643824046.778083]: GPS Data: Lat: 4220.524 Long: 7105.6454 Alt: 6.0 UTM East: 673375.2052935031 UTM North: 4674117.12419505 Zone: 42T
[INFO] [1643824048.012783]: GPS Data: Lat: 4220.524 Long: 7105.6454 Alt: 6.0 UTM East: 673375.2052935031 UTM North: 4674117.12419505 Zone: 42T
[INFO] [1643824049.248266]: GPS Data: Lat: 4220.524 Long: 7105.6454 Alt: 6.0 UTM East: 673375.2052935031 UTM North: 4674117.12419505 Zone: 42T
[INFO] [1643824050.032917]: GPS Data: Lat: 4220.524 Long: 7105.6454 Alt: 6.0 UTM East: 673375.2052935031 UTM North: 4674117.12419505 Zone: 42T
[INFO] [1643824051.797161]: GPS Data: Lat: 4220.524 Long: 7105.6454 Alt: 6.0 UTM East: 673375.2052935031 UTM North: 4674117.12419505 Zone: 42T
[INFO] [1643824053.032123]: GPS Data: Lat: 4220.5239 Long: 7105.6454 Alt: 6.0 UTM East: 673375.2052935031 UTM North: 4674117.12419505 Zone: 42T
[INFO] [1643824054.266729]: GPS Data: Lat: 4220.5239 Long: 7105.6454 Alt: 6.0 UTM East: 673375.2052935031 UTM North: 4674117.12419505 Zone: 42T
[INFO] [1643824055.033989]: GPS Data: Lat: 4220.5239 Long: 7105.6454 Alt: 6.0 UTM East: 673375.2052935031 UTM North: 4674117.12419505 Zone: 42T
[INFO] [1643824056.815398]: GPS Data: Lat: 4220.5239 Long: 7105.6454 Alt: 6.0 UTM East: 673375.2052935031 UTM North: 4674117.12419505 Zone: 42T
[INFO] [1643824058.051003]: GPS Data: Lat: 4220.5239 Long: 7105.6454 Alt: 6.0 UTM East: 673375.2052935031 UTM North: 4674117.12419505 Zone: 42T
[INFO] [1643824059.286650]: GPS Data: Lat: 4220.5239 Long: 7105.6454 Alt: 6.0 UTM East: 673375.2052935031 UTM North: 4674117.12419505 Zone: 42T
[INFO] [1643824060.051538]: GPS Data: Lat: 4220.5239 Long: 7105.6454 Alt: 6.0 UTM East: 673375.2052935031 UTM North: 4674117.12419505 Zone: 42T
[INFO] [1643824061.838616]: GPS Data: Lat: 4220.5239 Long: 7105.6454 Alt: 6.0 UTM East: 673375.2052935031 UTM North: 4674117.12419505 Zone: 42T
[INFO] [1643824063.078324]: GPS Data: Lat: 4220.5239 Long: 7105.6454 Alt: 6.0 UTM East: 673375.2052935031 UTM North: 4674117.12419505 Zone: 42T
[INFO] [1643824064.313073]: GPS Data: Lat: 4220.5239 Long: 7105.6454 Alt: 6.0 UTM East: 673375.2052935031 UTM North: 4674117.12419505 Zone: 42T
[INFO] [1643824065.096519]: GPS Data: Lat: 4220.5239 Long: 7105.6454 Alt: 6.0 UTM East: 673375.2052935031 UTM North: 4674117.12419505 Zone: 42T
[INFO] [1643824066.878590]: GPS Data: Lat: 4220.5239 Long: 7105.6454 Alt: 6.0 UTM East: 673375.2052935031 UTM North: 4674117.12419505 Zone: 42T
[INFO] [1643824068.114370]: GPS Data: Lat: 4220.5239 Long: 7105.6454 Alt: 6.0 UTM East: 673375.2052935031 UTM North: 4674117.12419505 Zone: 42T
[INFO] [1643824069.329566]: GPS Data: Lat: 4220.5239 Long: 7105.6454 Alt: 6.0 UTM East: 673375.2052935031 UTM North: 4674117.12419505 Zone: 42T
[INFO] [1643824070.092403]: GPS Data: Lat: 4220.5239 Long: 7105.6454 Alt: 6.0 UTM East: 673375.2052935031 UTM North: 4674117.12419505 Zone: 42T
[INFO] [1643824071.864351]: GPS Data: Lat: 4220.5239 Long: 7105.6454 Alt: 6.0 UTM East: 673375.2052935031 UTM North: 4674117.12419505 Zone: 42T
[INFO] [1643824073.111343]: GPS Data: Lat: 4220.5239 Long: 7105.6454 Alt: 6.0 UTM East: 673375.2052935031 UTM North: 4674117.12419505 Zone: 42T
[INFO] [1643824074.326870]: GPS Data: Lat: 4220.5239 Long: 7105.6454 Alt: 6.0 UTM East: 673375.2052935031 UTM North: 4674117.12419505 Zone: 42T
[INFO] [1643824075.088511]: GPS Data: Lat: 4220.5239 Long: 7105.6454 Alt: 6.0 UTM East: 673375.2052935031 UTM North: 4674117.12419505 Zone: 42T
[INFO] [1643824076.859896]: GPS Data: Lat: 4220.5239 Long: 7105.6454 Alt: 6.0 UTM East: 673375.2052935031 UTM North: 4674117.12419505 Zone: 42T
[INFO] [1643824078.090049]: GPS Data: Lat: 4220.5239 Long: 7105.6454 Alt: 6.0 UTM East: 673375.2052935031 UTM North: 4674117.12419505 Zone: 42T
[INFO] [1643824079.320918]: GPS Data: Lat: 4220.5239 Long: 7105.6454 Alt: 6.0 UTM East: 673375.2052935031 UTM North: 4674117.12419505 Zone: 42T
[INFO] [1643824080.100154]: GPS Data: Lat: 4220.5239 Long: 7105.6454 Alt: 6.0 UTM East: 673375.2052935031 UTM North: 4674117.12419505 Zone: 42T
[INFO] [1643824081.873788]: GPS Data: Lat: 4220.5239 Long: 7105.6454 Alt: 6.0 UTM East: 673375.2052935031 UTM North: 4674117.12419505 Zone: 42T
[INFO] [1643824083.104380]: GPS Data: Lat: 4220.5239 Long: 7105.6454 Alt: 6.0 UTM East: 673375.2052935031 UTM North: 4674117.12419505 Zone: 42T
[INFO] [1643824084.317175]: GPS Data: Lat: 4220.5239 Long: 7105.6454 Alt: 6.0 UTM East: 673375.2052935031 UTM North: 4674117.12419505 Zone: 42T
[INFO] [1643824085.080401]: GPS Data: Lat: 4220.5239 Long: 7105.6454 Alt: 6.0 UTM East: 673375.2052935031 UTM North: 4674117.12419505 Zone: 42T
[INFO] [1643824086.853448]: GPS Data: Lat: 4220.5239 Long: 7105.6454 Alt: 6.0 UTM East: 673375.2052935031 UTM North: 4674117.12419505 Zone: 42T
[INFO] [1643824088.082602]: GPS Data: Lat: 4220.5239 Long: 7105.6454 Alt: 6.0 UTM East: 673375.2052935031 UTM North: 4674117.12419505 Zone: 42T
[INFO] [1643824089.312725]: GPS Data: Lat: 4220.5239 Long: 7105.6454 Alt: 6.0 UTM East: 673375.2052935031 UTM North: 4674117.12419505 Zone: 42T
[INFO] [1643824090.077204]: GPS Data: Lat: 4220.5239 Long: 7105.6454 Alt: 6.0 UTM East: 673375.2052935031 UTM North: 4674117.12419505 Zone: 42T
[INFO] [1643824091.847732]: GPS Data: Lat: 4220.5239 Long: 7105.6454 Alt: 6.0 UTM East: 673375.2052935031 UTM North: 4674117.12419505 Zone: 42T
[INFO] [1643824093.078652]: GPS Data: Lat: 4220.5239 Long: 7105.6454 Alt: 6.0 UTM East: 673375.2052935031 UTM North: 4674117.12419505 Zone: 42T
[INFO] [1643824094.308374]: GPS Data: Lat: 4220.5239 Long: 7105.6454 Alt: 6.0 UTM East: 673375.2052935031 UTM North: 4674117.12419505 Zone: 42T
[INFO] [1643824095.071199]: GPS Data: Lat: 4220.5239 Long: 7105.6454 Alt: 6.0 UTM East: 673375.2052935031 UTM North: 4674117.12419505 Zone: 42T
[INFO] [1643824096.863836]: GPS Data: Lat: 4220.5239 Long: 7105.6454 Alt: 6.0 UTM East: 673375.2052935031 UTM North: 4674117.12419505 Zone: 42T
[INFO] [1643824098.078723]: GPS Data: Lat: 4220.5239 Long: 7105.6454 Alt: 6.1 UTM East: 673375.2052935031 UTM North: 4674117.12419505 Zone: 42T
[INFO] [1643824099.308602]: GPS Data: Lat: 4220.5239 Long: 7105.6454 Alt: 6.1 UTM East: 673375.2052935031 UTM North: 4674117.12419505 Zone: 42T
[INFO] [1643824100.087492]: GPS Data: Lat: 4220.5239 Long: 7105.6455 Alt: 6.1 UTM East: 673375.2052935031 UTM North: 4674117.12419505 Zone: 42T
[INFO] [1643824101.863742]: GPS Data: Lat: 4220.5239 Long: 7105.6455 Alt: 6.1 UTM East: 673375.2052935031 UTM North: 4674117.12419505 Zone: 42T
[INFO] [1643824103.081401]: GPS Data: Lat: 4220.5239 Long: 7105.6455 Alt: 6.1 UTM East: 673375.2052935031 UTM North: 4674117.12419505 Zone: 42T
[INFO] [1643824104.316671]: GPS Data: Lat: 4220.5239 Long: 7105.6455 Alt: 6.1 UTM East: 673375.2052935031 UTM North: 4674117.12419505 Zone: 42T
[INFO] [1643824105.086685]: GPS Data: Lat: 4220.5239 Long: 7105.6455 Alt: 6.1 UTM East: 673375.2052935031 UTM North: 4674117.12419505 Zone: 42T
[INFO] [1643824106.869745]: GPS Data: Lat: 4220.5239 Long: 7105.6455 Alt: 6.1 UTM East: 673375.2052935031 UTM North: 4674117.12419505 Zone: 42T
[INFO] [1643824108.103196]: GPS Data: Lat: 4220.5239 Long: 7105.6455 Alt: 6.1 UTM East: 673375.2052935031 UTM North: 4674117.12419505 Zone: 42T
[INFO] [1643824109.338651]: GPS Data: Lat: 4220.5239 Long: 7105.6455 Alt: 6.1 UTM East: 673375.2052935031 UTM North: 4674117.12419505 Zone: 42T
[INFO] [1643824110.111561]: GPS Data: Lat: 4220.5239 Long: 7105.6455 Alt: 6.1 UTM East: 673375.2052935031 UTM North: 4674117.12419505 Zone: 42T
[INFO] [1643824111.891448]: GPS Data: Lat: 4220.5239 Long: 7105.6455 Alt: 6.1 UTM East: 673375.2052935031 UTM North: 4674117.12419505 Zone: 42T
[INFO] [1643824113.121681]: GPS Data: Lat: 4220.5239 Long: 7105.6455 Alt: 6.1 UTM East: 673375.2052935031 UTM North: 4674117.12419505 Zone: 42T
[INFO] [1643824114.361789]: GPS Data: Lat: 4220.5239 Long: 7105.6455 Alt: 6.1 UTM East: 673375.2052935031 UTM North: 4674117.12419505 Zone: 42T
[INFO] [1643824115.152685]: GPS Data: Lat: 4220.5239 Long: 7105.6455 Alt: 6.1 UTM East: 673375.2052935031 UTM North: 4674117.12419505 Zone: 42T
[INFO] [1643824116.915329]: GPS Data: Lat: 4220.5239 Long: 7105.6455 Alt: 6.1 UTM East: 673375.2052935031 UTM North: 4674117.12419505 Zone: 42T
[INFO] [1643824118.161865]: GPS Data: Lat: 4220.5239 Long: 7105.6455 Alt: 6.1 UTM East: 673375.2052935031 UTM North: 4674117.12419505 Zone: 42T
[INFO] [1643824119.386215]: GPS Data: Lat: 4220.5239 Long: 7105.6455 Alt: 6.1 UTM East: 673375.2052935031 UTM North: 4674117.12419505 Zone: 42T
[INFO] [1643824120.156105]: GPS Data: Lat: 4220.5239 Long: 7105.6455 Alt: 6.1 UTM East: 673375.2052935031 UTM North: 4674117.12419505 Zone: 42T
[INFO] [1643824121.928115]: GPS Data: Lat: 4220.5239 Long: 7105.6455 Alt: 6.1 UTM East: 673375.2052935031 UTM North: 4674117.12419505 Zone: 42T
[INFO] [1643824123.159131]: GPS Data: Lat: 4220.5239 Long: 7105.6455 Alt: 6.1 UTM East: 673375.2052935031 UTM North: 4674117.12419505 Zone: 42T
[INFO] [1643824124.406544]: GPS Data: Lat: 4220.5239 Long: 7105.6455 Alt: 6.1 UTM East: 673375.2052935031 UTM North: 4674117.12419505 Zone: 42T
[INFO] [1643824125.151327]: GPS Data: Lat: 4220.5239 Long: 7105.6455 Alt: 6.1 UTM East: 673375.2052935031 UTM North: 4674117.12419505 Zone: 42T
[INFO] [1643824126.924292]: GPS Data: Lat: 4220.5239 Long: 7105.6455 Alt: 6.1 UTM East: 673375.2052935031 UTM North: 4674117.12419505 Zone: 42T
[INFO] [1643824128.154357]: GPS Data: Lat: 4220.5239 Long: 7105.6455 Alt: 6.1 UTM East: 673375.2052935031 UTM North: 4674117.12419505 Zone: 42T
[INFO] [1643824129.383832]: GPS Data: Lat: 4220.5239 Long: 7105.6455 Alt: 6.1 UTM East: 673375.2052935031 UTM North: 4674117.12419505 Zone: 42T
[INFO] [1643824130.163158]: GPS Data: Lat: 4220.5239 Long: 7105.6455 Alt: 6.1 UTM East: 673375.2052935031 UTM North: 4674117.12419505 Zone: 42T
[INFO] [1643824131.937502]: GPS Data: Lat: 4220.5239 Long: 7105.6455 Alt: 6.1 UTM East: 673375.2052935031 UTM North: 4674117.12419505 Zone: 42T
[INFO] [1643824133.167210]: GPS Data: Lat: 4220.5239 Long: 7105.6455 Alt: 6.1 UTM East: 673375.2052935031 UTM North: 4674117.12419505 Zone: 42T
[INFO] [1643824134.398789]: GPS Data: Lat: 4220.5239 Long: 7105.6455 Alt: 6.1 UTM East: 673375.2052935031 UTM North: 4674117.12419505 Zone: 42T
[INFO] [1643824135.143171]: GPS Data: Lat: 4220.5239 Long: 7105.6455 Alt: 6.1 UTM East: 673375.2052935031 UTM North: 4674117.12419505 Zone: 42T
[INFO] [1643824136.932395]: GPS Data: Lat: 4220.5239 Long: 7105.6455 Alt: 6.1 UTM East: 673375.2052935031 UTM North: 4674117.12419505 Zone: 42T
[INFO] [1643824138.145902]: GPS Data: Lat: 4220.5239 Long: 7105.6455 Alt: 6.1 UTM East: 673375.2052935031 UTM North: 4674117.12419505 Zone: 42T
[INFO] [1643824139.377179]: GPS Data: Lat: 4220.5239 Long: 7105.6455 Alt: 6.1 UTM East: 673375.2052935031 UTM North: 4674117.12419505 Zone: 42T
[INFO] [1643824140.132483]: GPS Data: Lat: 4220.5239 Long: 7105.6455 Alt: 6.1 UTM East: 673375.2052935031 UTM North: 4674117.12419505 Zone: 42T
[INFO] [1643824141.915592]: GPS Data: Lat: 4220.5239 Long: 7105.6455 Alt: 6.1 UTM East: 673375.2052935031 UTM North: 4674117.12419505 Zone: 42T
[INFO] [1643824143.151514]: GPS Data: Lat: 4220.5239 Long: 7105.6455 Alt: 6.1 UTM East: 673375.2052935031 UTM North: 4674117.12419505 Zone: 42T
[INFO] [1643824144.381108]: GPS Data: Lat: 4220.5239 Long: 7105.6455 Alt: 6.1 UTM East: 673375.2052935031 UTM North: 4674117.12419505 Zone: 42T
[INFO] [1643824145.143203]: GPS Data: Lat: 4220.5239 Long: 7105.6455 Alt: 6.1 UTM East: 673375.2052935031 UTM North: 4674117.12419505 Zone: 42T
[INFO] [1643824146.935061]: GPS Data: Lat: 4220.5239 Long: 7105.6455 Alt: 6.1 UTM East: 673375.2052935031 UTM North: 4674117.12419505 Zone: 42T
[INFO] [1643824148.146190]: GPS Data: Lat: 4220.5239 Long: 7105.6455 Alt: 6.1 UTM East: 673375.2052935031 UTM North: 4674117.12419505 Zone: 42T
[INFO] [1643824149.376172]: GPS Data: Lat: 4220.5239 Long: 7105.6455 Alt: 6.1 UTM East: 673375.2052935031 UTM North: 4674117.12419505 Zone: 42T
[INFO] [1643824150.133711]: GPS Data: Lat: 4220.5239 Long: 7105.6455 Alt: 6.1 UTM East: 673375.2052935031 UTM North: 4674117.12419505 Zone: 42T
[INFO] [1643824151.930717]: GPS Data: Lat: 4220.5239 Long: 7105.6455 Alt: 6.1 UTM East: 673375.2052935031 UTM North: 4674117.12419505 Zone: 42T
[INFO] [1643824153.140755]: GPS Data: Lat: 4220.5239 Long: 7105.6455 Alt: 6.1 UTM East: 673375.2052935031 UTM North: 4674117.12419505 Zone: 42T
[INFO] [1643824154.372259]: GPS Data: Lat: 4220.5239 Long: 7105.6455 Alt: 6.1 UTM East: 673375.2052935031 UTM North: 4674117.12419505 Zone: 42T
[INFO] [1643824155.139431]: GPS Data: Lat: 4220.5239 Long: 7105.6456 Alt: 6.1 UTM East: 673375.2052935031 UTM North: 4674117.12419505 Zone: 42T
[INFO] [1643824156.909795]: GPS Data: Lat: 4220.5239 Long: 7105.6456 Alt: 6.1 UTM East: 673375.2052935031 UTM North: 4674117.12419505 Zone: 42T
[INFO] [1643824158.145009]: GPS Data: Lat: 4220.5239 Long: 7105.6456 Alt: 6.1 UTM East: 673375.2052935031 UTM North: 4674117.12419505 Zone: 42T
[INFO] [1643824159.379235]: GPS Data: Lat: 4220.5239 Long: 7105.6456 Alt: 6.1 UTM East: 673375.2052935031 UTM North: 4674117.12419505 Zone: 42T
[INFO] [1643824160.150438]: GPS Data: Lat: 4220.5238 Long: 7105.6457 Alt: 6.2 UTM East: 673375.2052935031 UTM North: 4674117.12419505 Zone: 42T
[INFO] [1643824161.930865]: GPS Data: Lat: 4220.5238 Long: 7105.6457 Alt: 6.2 UTM East: 673375.2052935031 UTM North: 4674117.12419505 Zone: 42T
[INFO] [1643824163.161042]: GPS Data: Lat: 4220.5238 Long: 7105.6457 Alt: 6.2 UTM East: 673375.2052935031 UTM North: 4674117.12419505 Zone: 42T
[INFO] [1643824164.392000]: GPS Data: Lat: 4220.5238 Long: 7105.6457 Alt: 6.2 UTM East: 673375.2052935031 UTM North: 4674117.12419505 Zone: 42T
[INFO] [1643824165.175062]: GPS Data: Lat: 4220.5238 Long: 7105.6457 Alt: 6.2 UTM East: 673375.2052935031 UTM North: 4674117.12419505 Zone: 42T
[INFO] [1643824166.931247]: GPS Data: Lat: 4220.5238 Long: 7105.6457 Alt: 6.2 UTM East: 673375.2052935031 UTM North: 4674117.12419505 Zone: 42T
[INFO] [1643824168.177884]: GPS Data: Lat: 4220.5238 Long: 7105.6457 Alt: 6.2 UTM East: 673375.2052935031 UTM North: 4674117.12419505 Zone: 42T
[INFO] [1643824169.390444]: GPS Data: Lat: 4220.5238 Long: 7105.6457 Alt: 6.2 UTM East: 673375.2052935031 UTM North: 4674117.12419505 Zone: 42T
[INFO] [1643824170.159126]: GPS Data: Lat: 4220.5238 Long: 7105.6457 Alt: 6.2 UTM East: 673375.2052935031 UTM North: 4674117.12419505 Zone: 42T
[INFO] [1643824171.931151]: GPS Data: Lat: 4220.5238 Long: 7105.6457 Alt: 6.2 UTM East: 673375.2052935031 UTM North: 4674117.12419505 Zone: 42T
[INFO] [1643824173.156718]: GPS Data: Lat: 4220.5238 Long: 7105.6457 Alt: 6.2 UTM East: 673375.2052935031 UTM North: 4674117.12419505 Zone: 42T
[INFO] [1643824174.409701]: GPS Data: Lat: 4220.5238 Long: 7105.6457 Alt: 6.2 UTM East: 673375.2052935031 UTM North: 4674117.12419505 Zone: 42T
[INFO] [1643824175.159681]: GPS Data: Lat: 4220.5238 Long: 7105.6457 Alt: 6.2 UTM East: 673375.2052935031 UTM North: 4674117.12419505 Zone: 42T
[INFO] [1643824176.931863]: GPS Data: Lat: 4220.5238 Long: 7105.6457 Alt: 6.2 UTM East: 673375.2052935031 UTM North: 4674117.12419505 Zone: 42T
[INFO] [1643824178.157618]: GPS Data: Lat: 4220.5238 Long: 7105.6457 Alt: 6.2 UTM East: 673375.2052935031 UTM North: 4674117.12419505 Zone: 42T
[INFO] [1643824179.392839]: GPS Data: Lat: 4220.5238 Long: 7105.6457 Alt: 6.2 UTM East: 673375.2052935031 UTM North: 4674117.12419505 Zone: 42T
[INFO] [1643824180.176943]: GPS Data: Lat: 4220.5238 Long: 7105.6457 Alt: 6.2 UTM East: 673375.2052935031 UTM North: 4674117.12419505 Zone: 42T
[INFO] [1643824181.953813]: GPS Data: Lat: 4220.5238 Long: 7105.6457 Alt: 6.2 UTM East: 673375.2052935031 UTM North: 4674117.12419505 Zone: 42T
[INFO] [1643824183.189279]: GPS Data: Lat: 4220.5238 Long: 7105.6457 Alt: 6.2 UTM East: 673375.2052935031 UTM North: 4674117.12419505 Zone: 42T
[INFO] [1643824184.412188]: GPS Data: Lat: 4220.5238 Long: 7105.6457 Alt: 6.2 UTM East: 673375.2052935031 UTM North: 4674117.12419505 Zone: 42T
[INFO] [1643824185.167365]: GPS Data: Lat: 4220.5238 Long: 7105.6457 Alt: 6.2 UTM East: 673375.2052935031 UTM North: 4674117.12419505 Zone: 42T
[INFO] [1643824186.952564]: GPS Data: Lat: 4220.5238 Long: 7105.6457 Alt: 6.2 UTM East: 673375.2052935031 UTM North: 4674117.12419505 Zone: 42T
[INFO] [1643824188.172107]: GPS Data: Lat: 4220.5238 Long: 7105.6457 Alt: 6.2 UTM East: 673375.2052935031 UTM North: 4674117.12419505 Zone: 42T
[INFO] [1643824189.401080]: GPS Data: Lat: 4220.5238 Long: 7105.6457 Alt: 6.2 UTM East: 673375.2052935031 UTM North: 4674117.12419505 Zone: 42T
[INFO] [1643824190.163271]: GPS Data: Lat: 4220.5238 Long: 7105.6457 Alt: 6.2 UTM East: 673375.2052935031 UTM North: 4674117.12419505 Zone: 42T
[INFO] [1643824191.941334]: GPS Data: Lat: 4220.5238 Long: 7105.6457 Alt: 6.2 UTM East: 673375.2052935031 UTM North: 4674117.12419505 Zone: 42T
[INFO] [1643824193.171248]: GPS Data: Lat: 4220.5238 Long: 7105.6457 Alt: 6.2 UTM East: 673375.2052935031 UTM North: 4674117.12419505 Zone: 42T
[INFO] [1643824194.411005]: GPS Data: Lat: 4220.5238 Long: 7105.6457 Alt: 6.2 UTM East: 673375.2052935031 UTM North: 4674117.12419505 Zone: 42T
[INFO] [1643824195.174180]: GPS Data: Lat: 4220.5238 Long: 7105.6457 Alt: 6.2 UTM East: 673375.2052935031 UTM North: 4674117.12419505 Zone: 42T
[INFO] [1643824196.969754]: GPS Data: Lat: 4220.5238 Long: 7105.6457 Alt: 6.2 UTM East: 673375.2052935031 UTM North: 4674117.12419505 Zone: 42T
[INFO] [1643824198.186213]: GPS Data: Lat: 4220.5238 Long: 7105.6457 Alt: 6.2 UTM East: 673375.2052935031 UTM North: 4674117.12419505 Zone: 42T
[INFO] [1643824199.416271]: GPS Data: Lat: 4220.5238 Long: 7105.6457 Alt: 6.2 UTM East: 673375.2052935031 UTM North: 4674117.12419505 Zone: 42T
[INFO] [1643824200.189550]: GPS Data: Lat: 4220.5238 Long: 7105.6457 Alt: 6.2 UTM East: 673375.2052935031 UTM North: 4674117.12419505 Zone: 42T
[INFO] [1643824201.982000]: GPS Data: Lat: 4220.5238 Long: 7105.6457 Alt: 6.2 UTM East: 673375.2052935031 UTM North: 4674117.12419505 Zone: 42T
[INFO] [1643824203.199337]: GPS Data: Lat: 4220.5238 Long: 7105.6457 Alt: 6.2 UTM East: 673375.2052935031 UTM North: 4674117.12419505 Zone: 42T
[INFO] [1643824204.428028]: GPS Data: Lat: 4220.5238 Long: 7105.6457 Alt: 6.2 UTM East: 673375.2052935031 UTM North: 4674117.12419505 Zone: 42T
[INFO] [1643824205.205441]: GPS Data: Lat: 4220.5238 Long: 7105.6457 Alt: 6.2 UTM East: 673375.2052935031 UTM North: 4674117.12419505 Zone: 42T
[INFO] [1643824206.988357]: GPS Data: Lat: 4220.5238 Long: 7105.6457 Alt: 6.2 UTM East: 673375.2052935031 UTM North: 4674117.12419505 Zone: 42T
[INFO] [1643824208.220956]: GPS Data: Lat: 4220.5238 Long: 7105.6456 Alt: 6.2 UTM East: 673375.2052935031 UTM North: 4674117.12419505 Zone: 42T
[INFO] [1643824209.455472]: GPS Data: Lat: 4220.5238 Long: 7105.6456 Alt: 6.2 UTM East: 673375.2052935031 UTM North: 4674117.12419505 Zone: 42T
[INFO] [1643824210.229339]: GPS Data: Lat: 4220.5238 Long: 7105.6456 Alt: 6.2 UTM East: 673375.2052935031 UTM North: 4674117.12419505 Zone: 42T
[INFO] [1643824212.011554]: GPS Data: Lat: 4220.5238 Long: 7105.6456 Alt: 6.2 UTM East: 673375.2052935031 UTM North: 4674117.12419505 Zone: 42T
[INFO] [1643824213.245314]: GPS Data: Lat: 4220.5238 Long: 7105.6456 Alt: 6.2 UTM East: 673375.2052935031 UTM North: 4674117.12419505 Zone: 42T
[INFO] [1643824214.475975]: GPS Data: Lat: 4220.5238 Long: 7105.6456 Alt: 6.2 UTM East: 673375.2052935031 UTM North: 4674117.12419505 Zone: 42T
[INFO] [1643824215.248023]: GPS Data: Lat: 4220.5237 Long: 7105.6456 Alt: 6.2 UTM East: 673375.2052935031 UTM North: 4674117.12419505 Zone: 42T
[INFO] [1643824217.034965]: GPS Data: Lat: 4220.5237 Long: 7105.6456 Alt: 6.2 UTM East: 673375.2052935031 UTM North: 4674117.12419505 Zone: 42T
[INFO] [1643824218.266000]: GPS Data: Lat: 4220.5237 Long: 7105.6456 Alt: 6.2 UTM East: 673375.2052935031 UTM North: 4674117.12419505 Zone: 42T
[INFO] [1643824219.512351]: GPS Data: Lat: 4220.5237 Long: 7105.6456 Alt: 6.2 UTM East: 673375.2052935031 UTM North: 4674117.12419505 Zone: 42T
[INFO] [1643824220.262669]: GPS Data: Lat: 4220.5237 Long: 7105.6456 Alt: 6.2 UTM East: 673375.2052935031 UTM North: 4674117.12419505 Zone: 42T
[INFO] [1643824222.048627]: GPS Data: Lat: 4220.5237 Long: 7105.6456 Alt: 6.2 UTM East: 673375.2052935031 UTM North: 4674117.12419505 Zone: 42T
[INFO] [1643824223.272847]: GPS Data: Lat: 4220.5237 Long: 7105.6456 Alt: 6.2 UTM East: 673375.2052935031 UTM North: 4674117.12419505 Zone: 42T
[INFO] [1643824224.510175]: GPS Data: Lat: 4220.5237 Long: 7105.6456 Alt: 6.2 UTM East: 673375.2052935031 UTM North: 4674117.12419505 Zone: 42T
[INFO] [1643824225.298780]: GPS Data: Lat: 4220.5237 Long: 7105.6456 Alt: 6.2 UTM East: 673375.2052935031 UTM North: 4674117.12419505 Zone: 42T
[INFO] [1643824227.063419]: GPS Data: Lat: 4220.5237 Long: 7105.6456 Alt: 6.2 UTM East: 673375.2052935031 UTM North: 4674117.12419505 Zone: 42T
[INFO] [1643824228.297633]: GPS Data: Lat: 4220.5237 Long: 7105.6456 Alt: 6.2 UTM East: 673375.2052935031 UTM North: 4674117.12419505 Zone: 42T
[INFO] [1643824229.531978]: GPS Data: Lat: 4220.5237 Long: 7105.6456 Alt: 6.2 UTM East: 673375.2052935031 UTM North: 4674117.12419505 Zone: 42T
[INFO] [1643824230.305983]: GPS Data: Lat: 4220.5237 Long: 7105.6456 Alt: 6.2 UTM East: 673375.2052935031 UTM North: 4674117.12419505 Zone: 42T
[INFO] [1643824232.081059]: GPS Data: Lat: 4220.5237 Long: 7105.6456 Alt: 6.2 UTM East: 673375.2052935031 UTM North: 4674117.12419505 Zone: 42T
[INFO] [1643824233.339412]: GPS Data: Lat: 4220.5237 Long: 7105.6456 Alt: 6.2 UTM East: 673375.2052935031 UTM North: 4674117.12419505 Zone: 42T
[INFO] [1643824234.575218]: GPS Data: Lat: 4220.5237 Long: 7105.6456 Alt: 6.2 UTM East: 673375.2052935031 UTM North: 4674117.12419505 Zone: 42T
[INFO] [1643824235.347621]: GPS Data: Lat: 4220.5237 Long: 7105.6456 Alt: 6.2 UTM East: 673375.2052935031 UTM North: 4674117.12419505 Zone: 42T
[INFO] [1643824237.096045]: GPS Data: Lat: 4220.5237 Long: 7105.6456 Alt: 6.2 UTM East: 673375.2052935031 UTM North: 4674117.12419505 Zone: 42T
[INFO] [1643824238.325870]: GPS Data: Lat: 4220.5237 Long: 7105.6456 Alt: 6.2 UTM East: 673375.2052935031 UTM North: 4674117.12419505 Zone: 42T
[INFO] [1643824239.561770]: GPS Data: Lat: 4220.5237 Long: 7105.6456 Alt: 6.2 UTM East: 673375.2052935031 UTM North: 4674117.12419505 Zone: 42T
[INFO] [1643824240.346652]: GPS Data: Lat: 4220.5237 Long: 7105.6456 Alt: 6.2 UTM East: 673375.2052935031 UTM North: 4674117.12419505 Zone: 42T
[INFO] [1643824242.102843]: GPS Data: Lat: 4220.5237 Long: 7105.6456 Alt: 6.2 UTM East: 673375.2052935031 UTM North: 4674117.12419505 Zone: 42T
[INFO] [1643824243.333371]: GPS Data: Lat: 4220.5237 Long: 7105.6456 Alt: 6.2 UTM East: 673375.2052935031 UTM North: 4674117.12419505 Zone: 42T
[INFO] [1643824244.556409]: GPS Data: Lat: 4220.5237 Long: 7105.6456 Alt: 6.2 UTM East: 673375.2052935031 UTM North: 4674117.12419505 Zone: 42T
[INFO] [1643824245.327888]: GPS Data: Lat: 4220.5237 Long: 7105.6456 Alt: 6.2 UTM East: 673375.2052935031 UTM North: 4674117.12419505 Zone: 42T
[INFO] [1643824247.108396]: GPS Data: Lat: 4220.5237 Long: 7105.6456 Alt: 6.2 UTM East: 673375.2052935031 UTM North: 4674117.12419505 Zone: 42T
[INFO] [1643824248.359962]: GPS Data: Lat: 4220.5237 Long: 7105.6456 Alt: 6.2 UTM East: 673375.2052935031 UTM North: 4674117.12419505 Zone: 42T
[INFO] [1643824249.577736]: GPS Data: Lat: 4220.5237 Long: 7105.6455 Alt: 6.2 UTM East: 673375.2052935031 UTM North: 4674117.12419505 Zone: 42T
[INFO] [1643824250.353086]: GPS Data: Lat: 4220.5237 Long: 7105.6455 Alt: 6.2 UTM East: 673375.2052935031 UTM North: 4674117.12419505 Zone: 42T
[INFO] [1643824252.146748]: GPS Data: Lat: 4220.5237 Long: 7105.6455 Alt: 6.2 UTM East: 673375.2052935031 UTM North: 4674117.12419505 Zone: 42T
[INFO] [1643824253.390712]: GPS Data: Lat: 4220.5237 Long: 7105.6455 Alt: 6.2 UTM East: 673375.2052935031 UTM North: 4674117.12419505 Zone: 42T
[INFO] [1643824254.604691]: GPS Data: Lat: 4220.5237 Long: 7105.6455 Alt: 6.2 UTM East: 673375.2052935031 UTM North: 4674117.12419505 Zone: 42T
[INFO] [1643824255.369617]: GPS Data: Lat: 4220.5237 Long: 7105.6455 Alt: 6.2 UTM East: 673375.2052935031 UTM North: 4674117.12419505 Zone: 42T
[INFO] [1643824257.142783]: GPS Data: Lat: 4220.5236 Long: 7105.6455 Alt: 6.2 UTM East: 673375.2052935031 UTM North: 4674117.12419505 Zone: 42T
[INFO] [1643824258.373495]: GPS Data: Lat: 4220.5236 Long: 7105.6455 Alt: 6.2 UTM East: 673375.2052935031 UTM North: 4674117.12419505 Zone: 42T
[INFO] [1643824259.602856]: GPS Data: Lat: 4220.5236 Long: 7105.6455 Alt: 6.2 UTM East: 673375.2052935031 UTM North: 4674117.12419505 Zone: 42T
[INFO] [1643824260.371202]: GPS Data: Lat: 4220.5236 Long: 7105.6455 Alt: 6.2 UTM East: 673375.2052935031 UTM North: 4674117.12419505 Zone: 42T
